SF (Question 1);R = 0.5 (Question 2);Tracking Behavior (Question 3);LOC Estiamted (Question 4);Last Edit Estimated (Question 5);#E;Memory Strength;LOC Actual;LOC Error;Own Lines;Last Edit Actual;Last Edit Error;Days Since Last Edit;Response Date
8;60;5;1300;10.01.2017;27;511;848;53%;559;23.09.2016;96%;114;15.01.2017
7;30;8;500;15.08.2016;3;726;603;17%;114;03.05.2016;40%;259;17.01.2017
6;5;3;150;20.12.2016;4;55;134;12%;63;19.12.2016;4%;28;16.01.2017
7;14;0;400;04.01.2017;1;28;349;15%;1;04.01.2017;0%;10;14.01.2017
5;45;2;1200;22.12.2016;1;69;1129;6%;32;27.11.2016;52%;48;14.01.2017
7;40;2;350;10.12.2016;4;121;245;43%;92;01.12.2016;21%;43;13.01.2017
2;10;8;500;20.10.2016;1;53;549;9%;7;24.10.2016;5%;85;17.01.2017
2;360;10;170;01.08.2016;1;98;175;3%;1;09.08.2016;5%;157;13.01.2017
1;30;0;500;13.06.2016;1;89;1265;60%;1;22.06.2016;4%;206;14.01.2017
3;14;2;800;01.06.2016;6;153;423;89%;23;14.07.2016;23%;184;14.01.2017
4;40;8;2000;14.11.2016;2;174;3708;46%;82;08.08.2016;62%;159;14.01.2017
8;60;8;4000;15.11.2016;15;614;3708;8%;195;30.08.2016;56%;137;14.01.2017
5;40;0;500;10.01.2017;2;164;892;44%;50;22.09.2016;96%;114;14.01.2017
3;45;5;100;25.10.2016;1;65;105;5%;21;28.10.2016;4%;78;14.01.2017
3;20;6;600;05.11.2016;1;60;600;0%;19;03.11.2016;3%;72;14.01.2017
6;30;9;400;15.12.2016;21;86;524;24%;448;02.12.2016;30%;44;15.01.2017
8;90;0;400;02.01.2017;1;31;399;0%;24;06.01.2017;57%;7;13.01.2017
2;10;7;300;20.08.2016;1;91;452;34%;1;21.08.2016;1%;146;14.01.2017
4;10;8;10;15.11.2016;1;65;9;11%;9;16.11.2016;2%;60;15.01.2017
8;30;9;400;10.10.2016;6;430;667;40%;105;10.10.2016;0%;96;14.01.2017
3;30;5;15;15.11.2016;1;58;19;21%;1;19.11.2016;6%;70;28.01.2017
5;30;0;200;11.12.2016;1;98;354;44%;1;07.11.2016;50%;68;14.01.2017
6;50;0;60;20.12.2016;1;49;57;5%;57;20.12.2016;0%;25;14.01.2017
2;10;5;1000;15.10.2016;4;53;1495;33%;20;20.10.2016;6%;86;14.01.2017
2;31;7;150;01.10.2016;1;63;155;3%;49;09.10.2016;8%;102;19.01.2017
8;90;3;1000;01.06.2016;11;1340;1427;30%;540;21.03.2016;24%;299;14.01.2017
3;5;9;500;14.12.2016;1;48;520;4%;30;17.11.2016;47%;58;14.01.2017
9;40;4;2000;01.09.2016;43;1433;1722;16%;1721;17.08.2016;10%;151;15.01.2017
9;200;10;250;01.10.2016;16;522;455;45%;454;21.11.2016;93%;55;15.01.2017
9;45;0;50;15.12.2016;3;389;36;39%;36;05.12.2016;24%;41;15.01.2017
3;7;6;150;01.08.2016;2;145;159;6%;85;24.07.2016;5%;175;15.01.2017
8;15;8;150;10.12.2016;5;170;161;7%;51;10.12.2016;0%;38;17.01.2017
8;30;5;600;24.01.2017;7;515;478;26%;27;03.10.2016;98%;115;26.01.2017
7;15;7;2000;15.10.2016;27;280;3212;38%;141;06.10.2016;9%;100;14.01.2017
4;7;0;100;25.11.2016;1;49;90;11%;4;29.11.2016;9%;45;13.01.2017
1;5;7;150;19.08.2016;1;74;280;46%;3;27.07.2016;13%;171;14.01.2017
8;30;4;200;15.12.2016;9;134;369;46%;309;14.12.2016;3%;30;13.01.2017
3;5;10;50;10.11.2016;1;56;35;43%;1;10.11.2016;0%;67;16.01.2017
2;20;8;200;01.03.2016;2;197;210;5%;6;02.03.2016;0%;317;13.01.2017
6;5;6;3000;01.01.2017;5;45;5303;43%;4282;22.12.2016;43%;23;14.01.2017
2;3;2;700;14.09.2016;1;75;658;6%;3;16.09.2016;2%;120;14.01.2017
9;90;8;6000;13.01.2017;37;323;5687;6%;5070;13.12.2016;91%;34;16.01.2017
2;200;3;300;01.04.2016;1;163;289;4%;49;27.04.2016;10%;262;14.01.2017
2;30;0;700;18.08.2016;1;79;723;3%;2;09.09.2016;17%;127;14.01.2017
8;7;0;5;06.01.2017;1;49;9;44%;3;03.01.2017;27%;11;14.01.2017
7;3;10;300;13.08.2016;8;255;208;44%;69;15.10.2016;69%;91;14.01.2017
7;14;7;200;09.10.2016;3;300;208;4%;117;28.09.2016;10%;107;13.01.2017
5;30;4;1500;01.01.2017;9;36;912;64%;113;22.12.2016;40%;25;16.01.2017
1;30;9;600;01.08.2016;1;68;559;7%;11;12.08.2016;7%;156;15.01.2017
9;10;8;1000;01.11.2016;35;408;1585;37%;873;02.12.2016;72%;43;14.01.2017
2;10;3;150;01.07.2016;1;108;189;21%;4;25.07.2016;14%;174;15.01.2017
8;10;9;2000;15.12.2016;2;67;1398;43%;14;30.12.2016;100%;15;14.01.2017
9;180;6;800;29.02.2016;4;2221;948;16%;8;26.05.2016;37%;234;15.01.2017
4;40;4;120;25.11.2016;1;56;130;8%;14;23.11.2016;4%;51;13.01.2017
1;10;4;800;01.03.2016;1;127;506;58%;72;29.03.2016;10%;292;15.01.2017
3;30;0;666;09.10.2016;3;50;1473;55%;12;24.11.2016;77%;60;23.01.2017
4;14;3;2000;09.12.2016;7;45;1123;78%;151;05.12.2016;10%;41;15.01.2017
3;30;8;1000;07.08.2016;2;135;1596;37%;4;05.08.2016;1%;163;15.01.2017
6;20;7;200;20.12.2016;2;45;122;64%;6;21.12.2016;4%;23;13.01.2017
3;5;6;200;20.10.2016;1;66;245;18%;2;25.10.2016;6%;80;13.01.2017
;;;;;;;;;;;;;
;;;;;;;;;;;;;
Excluded responses;;;;;;;;;;;;;
5;5;5;500;15.11.2016;1;111;53;843%;17;06.11.2016;12%;77;22.01.2017
6;7;1;200;07.01.2016;0;;15312;99%;0;;999;;14.01.2017
9;100;7;250;01.09.2014;11;8912;370;32%;275;22.06.2014;8%;939;16.01.2017
6;10;0;1500;13.12.2016;2;505;743;102%;81;30.04.2016;88%;258;13.01.2017
6;5;9;350;05.09.2015;5;2422;1390;75%;100;26.08.2013;60%;1237;14.01.2017
4;60;8;1400;15.06.2016;26;1068;2132;34%;1947;28.05.2014;77%;979;31.01.2017
9;365;0;3000;04.01.2017;6;2079;641;368%;640;10.06.2016;95%;219;15.01.2017
8;180;7;3000;15.12.2016;3;1770;525;471%;4;16.12.2015;92%;395;14.01.2017
9;3;1;150;01.12.2016;1;6938;110;36%;64;16.01.2015;94%;731;16.01.2017
5;10;10;3000;19.09.2016;1;43;5303;43%;1;15.12.2016;290%;30;14.01.2017
7;3;10;2000;06.03.2016;10;2120;310;545%;26;20.12.2014;58%;756;13.01.2017
1;5;0;20;11.01.2016;0;;15;33%;0;;999;;16.01.2017
8;200;8;600;10.08.2016;5;3020;871;31%;659;13.03.2015;77%;674;15.01.2017
8;3;7;530;30.06.2016;0;;623;15%;0;;999;;15.01.2017
5;3;2;300;01.01.2013;0;;319;6%;0;;999;;13.01.2017
4;5;7;200;28.12.2016;1;34;51;292%;4;13.12.2016;48%;31;13.01.2017
7;14;1;1200;03.04.2016;4;1567;1242;3%;158;08.07.2015;48%;559;17.01.2017
9;60;7;2000;01.06.2016;1;6767;65;2977%;29;01.02.2015;68%;713;14.01.2017
